^F:\PROJ\RAYTRACING2\SOURCE.CPP
/c /IF:\PROJ\RAYTRACING2\PACKAGES\GLM.0.9.9.600\BUILD\NATIVE\INCLUDE/ /IF:\PROJ\RAYTRACING2\PACKAGES\LODEPNG.1.1.0\BUILD\NATIVE\..\..\LIB\NATIVE\INCLUDE\ /ZI /JMC /nologo /W3 /WX- /diagnostics:column /sdl /Od /Oy- /D HAS_GLM /D HAS_LODEPNG /D _MBCS /Gm- /EHsc /RTC1 /MDd /GS /fp:precise /permissive- /Zc:wchar_t /Zc:forScope /Zc:inline /Fo"DEBUG\\" /Fd"DEBUG\VC142.PDB" /Gd /TP /analyze- /FC F:\PROJ\RAYTRACING2\SOURCE.CPP
^F:\PROJ\RAYTRACING2\PACKAGES\LODEPNG.1.1.0\LIB\NATIVE\SRC\LODEPNG.CPP
/c /IF:\PROJ\RAYTRACING2\PACKAGES\GLM.0.9.9.600\BUILD\NATIVE\INCLUDE/ /IF:\PROJ\RAYTRACING2\PACKAGES\LODEPNG.1.1.0\BUILD\NATIVE\..\..\LIB\NATIVE\INCLUDE\ /ZI /JMC /nologo /W3 /WX- /diagnostics:column /sdl- /Od /Oy- /D HAS_GLM /D HAS_LODEPNG /D _MBCS /Gm- /EHa /RTC1 /MDd /GS /fp:precise /permissive- /Zc:wchar_t /Zc:forScope /Zc:inline /Fo"DEBUG\\" /Fd"DEBUG\VC142.PDB" /Gd /TP /analyze- /FC F:\PROJ\RAYTRACING2\PACKAGES\LODEPNG.1.1.0\LIB\NATIVE\SRC\LODEPNG.CPP
